…
```r
# Here is a look at the data set
Data
```

```
## # A tibble: 47,024 × 18
##    Date                 Days Location Cases New_Cases Contagious Deaths
##    <dttm>              <dbl> <chr>    <dbl>     <dbl>      <dbl>  <dbl>
##  1 2020-03-13 00:00:00    52 Alabama      6         6          6      0
##  2 2020-03-14 00:00:00    53 Alabama     12         6         12      0
##  3 2020-03-15 00:00:00    54 Alabama     23        11         23      0
##  4 2020-03-16 00:00:00    55 Alabama     29         6         29      0
##  5 2020-03-17 00:00:00    56 Alabama     39        10         39      0
##  6 2020-03-18 00:00:00    57 Alabama     51        12         51      0
##  7 2020-03-19 00:00:00    58 Alabama     78        27         78      0
##  8 2020-03-20 00:00:00    59 Alabama    106        28        106      0
##  9 2020-03-21 00:00:00    60 Alabama    131        25        131      0
## 10 2020-03-22 00:00:00    61 Alabama    157        26        157      0
## # … with 47,014 more rows, and 11 more variables: New_Deaths <dbl>,
## #   Distributed <dbl>, Administered <dbl>, Recip_Administered <dbl>,
## #   Administered_Dose1_Recip <dbl>, Administered_Dose1_Pop_Pct <dbl>,
## #   Series_Complete_Yes <dbl>, Series_Complete_Pop_Pct <dbl>,
## #   Additional_Doses <dbl>, Additional_Doses_Vax_Pct <dbl>,
## #   POPESTIMATE2020 <dbl>
```
I happened to notice that there were some occasional mistakes in the reported observations which would cause some of the variables to produce negative values. To fix this, I will delete all rows that contain at least one negative value. At the same time, I will keep a copy of the original data set to use for the values that are in the deleted rows but do not have negative values.

```r
Data1 <- subset(Data, New_Cases >= 0)
Data1 <- subset(Data1, Contagious >= 0)
Data1 <- subset(Data1, New_Deaths >= 0)
Data1
```

```
## # A tibble: 46,405 × 18
##    Date                 Days Location Cases New_Cases Contagious Deaths
##    <dttm>              <dbl> <chr>    <dbl>     <dbl>      <dbl>  <dbl>
##  1 2020-03-13 00:00:00    52 Alabama      6         6          6      0
##  2 2020-03-14 00:00:00    53 Alabama     12         6         12      0
##  3 2020-03-15 00:00:00    54 Alabama     23        11         23      0
##  4 2020-03-16 00:00:00    55 Alabama     29         6         29      0
##  5 2020-03-17 00:00:00    56 Alabama     39        10         39      0
##  6 2020-03-18 00:00:00    57 Alabama     51        12         51      0
##  7 2020-03-19 00:00:00    58 Alabama     78        27         78      0
##  8 2020-03-20 00:00:00    59 Alabama    106        28        106      0
##  9 2020-03-21 00:00:00    60 Alabama    131        25        131      0
## 10 2020-03-22 00:00:00    61 Alabama    157        26        157      0
## # … with 46,395 more rows, and 11 more variables: New_Deaths <dbl>,
## #   Distributed <dbl>, Administered <dbl>, Recip_Administered <dbl>,
## #   Administered_Dose1_Recip <dbl>, Administered_Dose1_Pop_Pct <dbl>,
## #   Series_Complete_Yes <dbl>, Series_Complete_Pop_Pct <dbl>,
## #   Additional_Doses <dbl>, Additional_Doses_Vax_Pct <dbl>,
## #   POPESTIMATE2020 <dbl>
```
…
```r
Current = subset(States, Days == 870)[c("Location", "Deaths")]
Current <- arrange(Current, desc(Deaths))
Current
```

```
## # A tibble: 56 × 2
##    Location     Deaths
##    <fct>         <dbl>
##  1 California   91771 
##  2 Texas        88652 
##  3 Florida      74818 
##  4 New York     68581 
##  5 Pennsylvania 45413 
##  6 Ohio         38604.
##  7 Illinois     38054 
##  8 Georgia      36803 
##  9 Michigan     36538 
## 10 New Jersey   33821 
## # … with 46 more rows
```
…
